title,text
"No spam or caps in chat","Spam in chat is not welcome. Offenders will receive warnings, with more serious offenders receiving a possible mute on the server. Spam is considered to be repeatedly typing the same or similar message in the chat, whether in personal messages or in global chat. No full sentences in capital letters in chat. However, abbreviations such as LOL are okay to be used in sentences."
"Be polite and courteous to all players","Rude and unfriendly behavior is not tolerated. Don't be a pain or irritate other players on the server. Do not jokingly or otherwise threaten to hack/DDoS the server or other players. We do not take lightly to this and offenders will get an instant ban."
"No discrimination or abusive behaviour towards players","Discrimination e.g. being racist, ageist, sexist is just disrespectful to players and so will not be tolerated. This also applies in our Discord, so be careful what you say there. Rudeness and arguments towards other players is also unwelcome. Provoking other players to become aggressive through mindless trolling is also unacceptable. We consider you to be a troll when you post inflammatory, irrelevant, or off topic messages or comments to players to primarily elicit dismay responses."
"Speak only English in chat","The majority of our staff primarily speaks English. If you do not speak English, or wish to communicate on the server with another language, you are more than welcome to private message other players in the game with the /m command."
"Do not spread personal information about users","If you see any personal information about a player through social media websites then we do not wish you to spread that information on the server. The majority of people have a private life and would like it to remain private from the server."
"Do not abuse bugs or glitches; report them to the staff","To report bugs and glitches, use our bug tracker which you can find <a href=""/link/bug"">here</a>. People who exploit glitches should be reported. On some of our servers we do allow the use of some bugs and glitches. See the server-specific rules below for more information."
"Be friendly and helpful towards new players","New players may be confused or lost on how to reach a destination. Just because they are new and a Guest doesn't mean you can't help show them around the server. Helping them get to know the server better, helps the community become stronger."
"No NSFW content or profane language in public chat","We do not want to see anything on CubeKrowd or in chat that would be considered 'not safe for work'. There is a large range of ages in our player base and they should not have to worry about seeing such profanity. Swearing in chat (profane language) is also unwelcome. Regular offenders will have a long term mute. As an additional note, we do not want players online who have rude/inappropriate skins/usernames. If we find you to have one, we will ask you to change it before you may log back in. Builds that are also seen as inappropriate will be removed without warning and  the creator(s) will be banned."
"Client-side modifications","Hacked clients, like on the majority of good servers, are not allowed. If you see someone using any form of hacks on the server then please report that user to the staff immediately. Please don't use mouse macros to auto click during minigames, or use it on other servers where it would give you an unfair advantage. If you have concerns whether a mod you are using is allowed or not on the server, please contact Admins."
"Advertising of links and servers","Do not advertise any IPs in our chat or in personal messages. If you would like to bring an audience to your server, our server is not the place to do so. Links of YouTube videos in chat is by all means acceptable. As long as these videos are not offensive to anyone or deemed to be inappropriate to young audiences. However we do not appreciate it if you spam the chat with video links promoting yourself or other. Links that direct you to an image are accepted as long as they are appropriate and not offensive. If possible, include a brief description of the image or video so people know what they are expecting. Do not post screamers in chat or in messages. This is classed as trolling. Any links that are of pornographic nature, the person posting them will have an immediate ban. Streaming links can be posted in chat if you are streaming content affiliated with CubeKrowd."
"No changing usernames to something inappropriate","Changing your username to something inappropriate will result in a 30 day suspension of the account. Suspension on the account will be extended if the name has not been changed to one that is appropriate."
"Be responsible with the privileges you are given","With the permissions you are given, be responsible with them. With WorldEdit, make sure you do not cause Creative to crash. Crashing Creative 3 times in a short period results in a temporary loss of WorldEdit. Players + Staff are not to abuse their powers, report them in the player reports form. If you believe there is an error in your privileges, contact the staff about it."
"No sharing accounts","Make sure your account is safe and secure to make sure others do not have access to it. If siblings or friends are found to be using your account and are in violation of the rules, there are no exceptions and the account may get banned. Equally, don't give your account to another player for them to get the rank Member. Alt accounts are fine to be used if you wish to AFK at farms while you are online. AFKing over a number of days/nights with an alt is discouraged but not prohibited."
"No team griefing","During a game of Missile Wars, IceRunner or other game, do not team grief. In MissileWars, do not spawn missiles inside your team's other missiles, or shoot them with projectiles. Do not make spawn traps in front of the spawning platform. If you see a player playing improperly, report them to the staff."
"Minigame servers are for playing minigames","Minigame servers are primarily for public use and priority always goes to normal gameplay. You must not hog servers and must allow people to play normally if they want to. Do not cause a mess, and always clean up after you are done."
"Avoid crashing or severely lagging servers","In case of server crashes or severe lag, staff will investigate the issue. The investigation's findings could result in a verbal talk, a warning, or other punishment. We value open, honest explanations for crashes and severe lag, which can help us better understand the underlying reason. This may lead to a reduced punishment. As always, players can appeal by using the <a href=""/link/appeal"">appeal form</a> or by contacting the staff if they don't agree with a punishment."